Assignment 4: Text Analysis Using Quanteda – Kasra Akbari
…
# Create clean UNIQUE document IDs
DODq$doc_id <- make.unique(paste0("USDOD_", DODq$year, ".pdf"))

# Sort by year for consistent ordering
DODq <- dplyr::arrange(DODq, year)

cat("Successfully loaded", nrow(DODq), "reports spanning",
    min(DODq$year), "to", max(DODq$year), "\n")

Successfully loaded 27 reports spanning 1999 to 2025 

print(DODq[, c("doc_id", "year")])

# A tibble: 27 × 2
   doc_id          year
   <chr>          <dbl>
 1 USDOD_1999.pdf  1999
 2 USDOD_2000.pdf  2000
 3 USDOD_2001.pdf  2001
 4 USDOD_2002.pdf  2002
 5 USDOD_2003.pdf  2003
 6 USDOD_2004.pdf  2004
 7 USDOD_2005.pdf  2005
 8 USDOD_2006.pdf  2006
 9 USDOD_2007.pdf  2007
10 USDOD_2008.pdf  2008
# ℹ 17 more rows
…
